comp_test/sh_out.txt
VCD info: dumpfile tb.vcd opened for output.
                   0<<Starting simulation>>
          0: 0040006f
          1: 00000193
          2: 00200193
          3: 00001117
          4: ff410113
          5: 0aa00093
          6: 00000797
          7: 01478793
          8: 00111023
          9: 00011703
         10: 0080006f
         11: 00008713
         12: 0aa00393
         13: 4c771663
         14: 00300193
         15: 00001117
         16: fc410113
         17: ffffb0b7
         18: a0008093
         19: 00000797
         20: 01478793
         21: 00111123
         22: 00211703
         23: 0080006f
         24: 00008713
         25: ffffb3b7
         26: a0038393
         27: 48771a63
         28: 00400193
         29: 00001117
         30: f8c10113
         31: beef10b7
         32: aa008093
         33: 00000797
         34: 01478793
         35: 00111223
         36: 00412703
         37: 0080006f
         38: 00008713
         39: beef13b7
         40: aa038393
         41: 44771e63
         42: 00500193
         43: 00001117
         44: f5410113
         45: ffffa0b7
         46: 00a08093
         47: 00000797
         48: 01478793
         49: 00111323
[MEM_SUBSYS_INIT] ram[24]=00008713 ram[25]=ffffb3b7 ram[26]=a0038393 ram[27]=48771a63 ram[28]=00400193 ram[29]=00001117
[DATA_OVERLAY] ram[1024]=beefbeef ram[1025]=beefbeef ram[1026]=beefbeef ram[1027]=beefbeef
[HEARTBEAT] Cycle=0 PC=0x00000000 if_valid=0 if_inst=0x00000000 dec0_valid=0 fb_pop0_valid=0 rst=1 @100
[L2 ARB] grant M0 addr=00000000
[L2 CACHE] accept addr=00000000 write=0 uncached=0 state=0
[L2 CACHE] lookup addr=00000000 hit=0 hit_way=0 valid=0000 tag=000000/000000/000000/000000
[L2 CACHE] miss addr=00000000 victim=0 dirty=0
[L2 CACHE] refill cnt=0 ram_addr=00000000 ram_rdata=0040006f victim=0
[L2 CACHE] refill cnt=1 ram_addr=00000004 ram_rdata=00000193 victim=0
[L2 CACHE] refill cnt=2 ram_addr=00000008 ram_rdata=00200193 victim=0
[L2 CACHE] refill cnt=3 ram_addr=0000000c ram_rdata=00001117 victim=0
[L2 CACHE] refill cnt=4 ram_addr=00000010 ram_rdata=ff410113 victim=0
[L2 CACHE] refill cnt=5 ram_addr=00000014 ram_rdata=0aa00093 victim=0
[L2 CACHE] refill cnt=6 ram_addr=00000018 ram_rdata=00000797 victim=0
[L2 CACHE] refill cnt=7 ram_addr=0000001c ram_rdata=01478793 victim=0
[L2 CACHE] lookup addr=00000000 hit=1 hit_way=0 valid=0001 tag=000000/000000/000000/000000
[L2 ARB] resp master=0 data=0040006f
[L2 ARB] grant M0 addr=00000000
[L2 CACHE] accept addr=00000000 write=0 uncached=0 state=0
[L2 CACHE] lookup addr=00000000 hit=1 hit_way=0 valid=0001 tag=000000/000000/000000/000000
[L2 ARB] resp master=0 data=0040006f
[L2 ARB] grant M0 addr=00000020
[L2 CACHE] accept addr=00000020 write=0 uncached=0 state=0
[L2 CACHE] lookup addr=00000020 hit=0 hit_way=0 valid=0000 tag=000000/000000/000000/000000
[L2 CACHE] miss addr=00000020 victim=0 dirty=0
[L2 CACHE] refill cnt=0 ram_addr=00000020 ram_rdata=00111023 victim=0
[L2 CACHE] refill cnt=1 ram_addr=00000024 ram_rdata=00011703 victim=0
[L2 CACHE] refill cnt=2 ram_addr=00000028 ram_rdata=0080006f victim=0
[L2 CACHE] refill cnt=3 ram_addr=0000002c ram_rdata=00008713 victim=0
[L2 CACHE] refill cnt=4 ram_addr=00000030 ram_rdata=0aa00393 victim=0
[L2 CACHE] refill cnt=5 ram_addr=00000034 ram_rdata=4c771663 victim=0
[L2 CACHE] refill cnt=6 ram_addr=00000038 ram_rdata=00300193 victim=0
[L2 CACHE] refill cnt=7 ram_addr=0000003c ram_rdata=00001117 victim=0
[L2 CACHE] lookup addr=00000020 hit=1 hit_way=0 valid=0001 tag=000000/000000/000000/000000
[L2 ARB] resp master=0 data=00111023
[L2 ARB] grant M1 addr=00001000 write=1 wdata=000000aa
[L2 CACHE] accept addr=00001000 write=1 uncached=0 state=0
[L2 CACHE] lookup addr=00001000 hit=0 hit_way=0 valid=0001 tag=000000/000000/000000/000000
[L2 CACHE] miss addr=00001000 victim=1 dirty=0
[L2 CACHE] refill cnt=0 ram_addr=00001000 ram_rdata=beefbeef victim=1
[L2 CACHE] refill cnt=1 ram_addr=00001004 ram_rdata=beefbeef victim=1
[L2 CACHE] refill cnt=2 ram_addr=00001008 ram_rdata=beefbeef victim=1
[L2 CACHE] refill cnt=3 ram_addr=0000100c ram_rdata=beefbeef victim=1
[L2 CACHE] refill cnt=4 ram_addr=00001010 ram_rdata=beefbeef victim=1
[L2 CACHE] refill cnt=5 ram_addr=00001014 ram_rdata=00000000 victim=1
[L2 CACHE] refill cnt=6 ram_addr=00001018 ram_rdata=00000000 victim=1
[L2 CACHE] refill cnt=7 ram_addr=0000101c ram_rdata=00000000 victim=1
[L2 CACHE] lookup addr=00001000 hit=1 hit_way=1 valid=0011 tag=000000/000002/000000/000000
[L2 ARB] resp master=1 data=000000aa
[LSU RESP] drain=1 addr=00001000 raw=000000aa shaped=00000000
[L2 ARB] grant M0 addr=00000020
[L2 CACHE] accept addr=00000020 write=0 uncached=0 state=0
[L2 CACHE] lookup addr=00000020 hit=1 hit_way=0 valid=0001 tag=000000/000000/000000/000000
[L2 ARB] resp master=0 data=00111023
[L2 ARB] grant M1 addr=00001000 write=0 wdata=00000000
[L2 CACHE] accept addr=00001000 write=0 uncached=0 state=0
[L2 CACHE] lookup addr=00001000 hit=1 hit_way=1 valid=0011 tag=000000/000002/000000/000000
[L2 ARB] resp master=1 data=beef00aa
[LSU RESP] drain=0 addr=00001000 raw=beef00aa shaped=00000000
[L2 ARB] grant M0 addr=00000040
[L2 CACHE] accept addr=00000040 write=0 uncached=0 state=0
[L2 CACHE] lookup addr=00000040 hit=0 hit_way=0 valid=0000 tag=000000/000000/000000/000000
[L2 CACHE] miss addr=00000040 victim=0 dirty=0
[L2 CACHE] refill cnt=0 ram_addr=00000040 ram_rdata=fc410113 victim=0
[L2 CACHE] refill cnt=1 ram_addr=00000044 ram_rdata=ffffb0b7 victim=0
[L2 CACHE] refill cnt=2 ram_addr=00000048 ram_rdata=a0008093 victim=0
[L2 CACHE] refill cnt=3 ram_addr=0000004c ram_rdata=00000797 victim=0
[L2 CACHE] refill cnt=4 ram_addr=00000050 ram_rdata=01478793 victim=0
[L2 CACHE] refill cnt=5 ram_addr=00000054 ram_rdata=00111123 victim=0
[L2 CACHE] refill cnt=6 ram_addr=00000058 ram_rdata=00211703 victim=0
[L2 CACHE] refill cnt=7 ram_addr=0000005c ram_rdata=0080006f victim=0
[L2 CACHE] lookup addr=00000040 hit=1 hit_way=0 valid=0001 tag=000000/000000/000000/000000
[L2 ARB] resp master=0 data=fc410113
[L2 ARB] grant M1 addr=00001002 write=1 wdata=aa000000
[L2 CACHE] accept addr=00001002 write=1 uncached=0 state=0
[L2 CACHE] lookup addr=00001002 hit=1 hit_way=1 valid=0011 tag=000000/000002/000000/000000
[L2 ARB] resp master=1 data=aa000000
[LSU RESP] drain=1 addr=00001002 raw=aa000000 shaped=ffffbeef
[L2 ARB] grant M0 addr=00000060
[L2 CACHE] accept addr=00000060 write=0 uncached=0 state=0
[L2 CACHE] lookup addr=00000060 hit=0 hit_way=0 valid=0000 tag=000000/000000/000000/000000
[L2 CACHE] miss addr=00000060 victim=0 dirty=0
[L2 CACHE] refill cnt=0 ram_addr=00000060 ram_rdata=00008713 victim=0
[L2 CACHE] refill cnt=1 ram_addr=00000064 ram_rdata=ffffb3b7 victim=0
[L2 CACHE] refill cnt=2 ram_addr=00000068 ram_rdata=a0038393 victim=0
[L2 CACHE] refill cnt=3 ram_addr=0000006c ram_rdata=48771a63 victim=0
[L2 CACHE] refill cnt=4 ram_addr=00000070 ram_rdata=00400193 victim=0
[L2 CACHE] refill cnt=5 ram_addr=00000074 ram_rdata=00001117 victim=0
[L2 CACHE] refill cnt=6 ram_addr=00000078 ram_rdata=f8c10113 victim=0
[L2 CACHE] refill cnt=7 ram_addr=0000007c ram_rdata=beef10b7 victim=0
[L2 CACHE] lookup addr=00000060 hit=1 hit_way=0 valid=0001 tag=000000/000000/000000/000000
[L2 ARB] resp master=0 data=00008713
[L2 ARB] grant M1 addr=00001002 write=0 wdata=00000000
[L2 CACHE] accept addr=00001002 write=0 uncached=0 state=0
[L2 CACHE] lookup addr=00001002 hit=1 hit_way=1 valid=0011 tag=000000/000002/000000/000000
[L2 ARB] resp master=1 data=aa0000aa
[LSU RESP] drain=0 addr=00001002 raw=aa0000aa shaped=ffffbeef
[L2 ARB] grant M0 addr=00000060
[L2 CACHE] accept addr=00000060 write=0 uncached=0 state=0
[L2 CACHE] lookup addr=00000060 hit=1 hit_way=0 valid=0001 tag=000000/000000/000000/000000
[L2 ARB] resp master=0 data=00008713
[L2 ARB] grant M0 addr=00000080
[L2 CACHE] accept addr=00000080 write=0 uncached=0 state=0
[L2 CACHE] lookup addr=00000080 hit=0 hit_way=0 valid=0000 tag=000000/000000/000000/000000
[L2 CACHE] miss addr=00000080 victim=0 dirty=0
[L2 CACHE] refill cnt=0 ram_addr=00000080 ram_rdata=aa008093 victim=0
[L2 CACHE] refill cnt=1 ram_addr=00000084 ram_rdata=00000797 victim=0
[L2 CACHE] refill cnt=2 ram_addr=00000088 ram_rdata=01478793 victim=0
[L2 CACHE] refill cnt=3 ram_addr=0000008c ram_rdata=00111223 victim=0
[L2 CACHE] refill cnt=4 ram_addr=00000090 ram_rdata=00412703 victim=0
[L2 CACHE] refill cnt=5 ram_addr=00000094 ram_rdata=0080006f victim=0
[L2 CACHE] refill cnt=6 ram_addr=00000098 ram_rdata=00008713 victim=0
[L2 CACHE] refill cnt=7 ram_addr=0000009c ram_rdata=beef13b7 victim=0
[L2 CACHE] lookup addr=00000080 hit=1 hit_way=0 valid=0001 tag=000000/000000/000000/000000
[L2 ARB] resp master=0 data=aa008093
[L2 ARB] grant M1 addr=00001004 write=1 wdata=00000aa0
[L2 CACHE] accept addr=00001004 write=1 uncached=0 state=0
[L2 CACHE] lookup addr=00001004 hit=1 hit_way=1 valid=0011 tag=000000/000002/000000/000000
[L2 ARB] resp master=1 data=00000aa0
[LSU RESP] drain=1 addr=00001004 raw=00000aa0 shaped=000000aa
[L2 ARB] grant M1 addr=00001004 write=0 wdata=00000000
[L2 CACHE] accept addr=00001004 write=0 uncached=0 state=0
[L2 CACHE] lookup addr=00001004 hit=1 hit_way=1 valid=0011 tag=000000/000002/000000/000000
[LSU RESP] drain=0 addr=00001004 raw=beef0aa0 shaped=aa0000aa
[L2 ARB] resp master=1 data=beef0aa0
[L2 ARB] grant M0 addr=000000a0
[L2 CACHE] accept addr=000000a0 write=0 uncached=0 state=0
[L2 CACHE] lookup addr=000000a0 hit=0 hit_way=0 valid=0000 tag=000000/000000/000000/000000
[L2 CACHE] miss addr=000000a0 victim=0 dirty=0
[L2 CACHE] refill cnt=0 ram_addr=000000a0 ram_rdata=aa038393 victim=0
[L2 CACHE] refill cnt=1 ram_addr=000000a4 ram_rdata=44771e63 victim=0
[L2 CACHE] refill cnt=2 ram_addr=000000a8 ram_rdata=00500193 victim=0
[L2 CACHE] refill cnt=3 ram_addr=000000ac ram_rdata=00001117 victim=0
[L2 CACHE] refill cnt=4 ram_addr=000000b0 ram_rdata=f5410113 victim=0
[L2 CACHE] refill cnt=5 ram_addr=000000b4 ram_rdata=ffffa0b7 victim=0
[L2 CACHE] refill cnt=6 ram_addr=000000b8 ram_rdata=00a08093 victim=0
[L2 CACHE] refill cnt=7 ram_addr=000000bc ram_rdata=00000797 victim=0
[L2 CACHE] lookup addr=000000a0 hit=1 hit_way=0 valid=0001 tag=000000/000000/000000/000000
[L2 ARB] resp master=0 data=aa038393
[L2 ARB] grant M0 addr=000000c0
[L2 CACHE] accept addr=000000c0 write=0 uncached=0 state=0
[L2 CACHE] lookup addr=000000c0 hit=0 hit_way=0 valid=0000 tag=000000/000000/000000/000000
[L2 CACHE] miss addr=000000c0 victim=0 dirty=0
[L2 CACHE] refill cnt=0 ram_addr=000000c0 ram_rdata=01478793 victim=0
[L2 CACHE] refill cnt=1 ram_addr=000000c4 ram_rdata=00111323 victim=0
[L2 CACHE] refill cnt=2 ram_addr=000000c8 ram_rdata=00611703 victim=0
[L2 CACHE] refill cnt=3 ram_addr=000000cc ram_rdata=0080006f victim=0
[L2 CACHE] refill cnt=4 ram_addr=000000d0 ram_rdata=00008713 victim=0
[L2 CACHE] refill cnt=5 ram_addr=000000d4 ram_rdata=ffffa3b7 victim=0
[L2 CACHE] refill cnt=6 ram_addr=000000d8 ram_rdata=00a38393 victim=0
[L2 CACHE] refill cnt=7 ram_addr=000000dc ram_rdata=42771263 victim=0
[L2 CACHE] lookup addr=000000c0 hit=1 hit_way=0 valid=0001 tag=000000/000000/000000/000000
[L2 ARB] resp master=0 data=01478793
[L2 ARB] grant M1 addr=00001006 write=1 wdata=a00a0000
[L2 CACHE] accept addr=00001006 write=1 uncached=0 state=0
[L2 CACHE] lookup addr=00001006 hit=1 hit_way=1 valid=0011 tag=000000/000002/000000/000000
[L2 ARB] resp master=1 data=a00a0000
[LSU RESP] drain=1 addr=00001006 raw=a00a0000 shaped=ffffbeef
[L2 ARB] grant M0 addr=000000c0
[L2 CACHE] accept addr=000000c0 write=0 uncached=0 state=0
[L2 CACHE] lookup addr=000000c0 hit=1 hit_way=0 valid=0001 tag=000000/000000/000000/000000
[L2 ARB] resp master=0 data=01478793
[L2 ARB] grant M1 addr=00001006 write=0 wdata=00000000
[L2 CACHE] accept addr=00001006 write=0 uncached=0 state=0
[L2 CACHE] lookup addr=00001006 hit=1 hit_way=1 valid=0011 tag=000000/000002/000000/000000
[L2 ARB] resp master=1 data=a00a0aa0
[LSU RESP] drain=0 addr=00001006 raw=a00a0aa0 shaped=ffffbeef
[L2 ARB] grant M0 addr=000000e0
[L2 CACHE] accept addr=000000e0 write=0 uncached=0 state=0
[L2 CACHE] lookup addr=000000e0 hit=0 hit_way=0 valid=0000 tag=000000/000000/000000/000000
[L2 CACHE] miss addr=000000e0 victim=0 dirty=0
[L2 CACHE] refill cnt=0 ram_addr=000000e0 ram_rdata=00600193 victim=0
[L2 CACHE] refill cnt=1 ram_addr=000000e4 ram_rdata=00001117 victim=0
[L2 CACHE] refill cnt=2 ram_addr=000000e8 ram_rdata=f2a10113 victim=0
[L2 CACHE] refill cnt=3 ram_addr=000000ec ram_rdata=0aa00093 victim=0
[L2 CACHE] refill cnt=4 ram_addr=000000f0 ram_rdata=00000797 victim=0
[L2 CACHE] refill cnt=5 ram_addr=000000f4 ram_rdata=01478793 victim=0
[L2 CACHE] refill cnt=6 ram_addr=000000f8 ram_rdata=fe111d23 victim=0
[L2 CACHE] refill cnt=7 ram_addr=000000fc ram_rdata=ffa11703 victim=0
[L2 CACHE] lookup addr=000000e0 hit=1 hit_way=0 valid=0001 tag=000000/000000/000000/000000
[L2 ARB] resp master=0 data=00600193
[L2 ARB] grant M0 addr=00000100
[L2 CACHE] accept addr=00000100 write=0 uncached=0 state=0
[L2 CACHE] lookup addr=00000100 hit=0 hit_way=0 valid=0000 tag=000000/000000/000000/000000
[L2 CACHE] miss addr=00000100 victim=0 dirty=0
[L2 CACHE] refill cnt=0 ram_addr=00000100 ram_rdata=0080006f victim=0
[L2 CACHE] refill cnt=1 ram_addr=00000104 ram_rdata=00008713 victim=0
[L2 CACHE] refill cnt=2 ram_addr=00000108 ram_rdata=0aa00393 victim=0
[L2 CACHE] refill cnt=3 ram_addr=0000010c ram_rdata=3e771a63 victim=0
[L2 CACHE] refill cnt=4 ram_addr=00000110 ram_rdata=00700193 victim=0
[L2 CACHE] refill cnt=5 ram_addr=00000114 ram_rdata=00001117 victim=0
[L2 CACHE] refill cnt=6 ram_addr=00000118 ram_rdata=efa10113 victim=0
[L2 CACHE] refill cnt=7 ram_addr=0000011c ram_rdata=ffffb0b7 victim=0
[L2 CACHE] lookup addr=00000100 hit=1 hit_way=0 valid=0001 tag=000000/000000/000000/000000
[L2 ARB] resp master=0 data=0080006f
[L2 ARB] grant M1 addr=00001008 write=1 wdata=000000aa
[L2 CACHE] accept addr=00001008 write=1 uncached=0 state=0
[L2 CACHE] lookup addr=00001008 hit=1 hit_way=1 valid=0011 tag=000000/000002/000000/000000
[L2 ARB] resp master=1 data=000000aa
[LSU RESP] drain=1 addr=00001008 raw=000000aa shaped=00000aa0
[L2 ARB] grant M1 addr=00001008 write=0 wdata=00000000
[L2 CACHE] accept addr=00001008 write=0 uncached=0 state=0
[L2 CACHE] lookup addr=00001008 hit=1 hit_way=1 valid=0011 tag=000000/000002/000000/000000
[LSU RESP] drain=0 addr=00001008 raw=beef00aa shaped=00000aa0
[L2 ARB] resp master=1 data=beef00aa
[L2 ARB] grant M0 addr=00000100
[L2 CACHE] accept addr=00000100 write=0 uncached=0 state=0
[L2 CACHE] lookup addr=00000100 hit=1 hit_way=0 valid=0001 tag=000000/000000/000000/000000
[L2 ARB] resp master=0 data=0080006f
[L2 ARB] grant M0 addr=00000120
[L2 CACHE] accept addr=00000120 write=0 uncached=0 state=0
[L2 CACHE] lookup addr=00000120 hit=0 hit_way=0 valid=0000 tag=000000/000000/000000/000000
[L2 CACHE] miss addr=00000120 victim=0 dirty=0
[L2 CACHE] refill cnt=0 ram_addr=00000120 ram_rdata=a0008093 victim=0
[L2 CACHE] refill cnt=1 ram_addr=00000124 ram_rdata=00000797 victim=0
[L2 CACHE] refill cnt=2 ram_addr=00000128 ram_rdata=01478793 victim=0
[L2 CACHE] refill cnt=3 ram_addr=0000012c ram_rdata=fe111e23 victim=0
[L2 CACHE] refill cnt=4 ram_addr=00000130 ram_rdata=ffc11703 victim=0
[L2 CACHE] refill cnt=5 ram_addr=00000134 ram_rdata=0080006f victim=0
[L2 CACHE] refill cnt=6 ram_addr=00000138 ram_rdata=00008713 victim=0
[L2 CACHE] refill cnt=7 ram_addr=0000013c ram_rdata=ffffb3b7 victim=0
[L2 CACHE] lookup addr=00000120 hit=1 hit_way=0 valid=0001 tag=000000/000000/000000/000000
[L2 ARB] resp master=0 data=a0008093
[L2 ARB] grant M1 addr=0000100a write=1 wdata=aa000000
[L2 CACHE] accept addr=0000100a write=1 uncached=0 state=0
[L2 CACHE] lookup addr=0000100a hit=1 hit_way=1 valid=0011 tag=000000/000002/000000/000000
[LSU RESP] drain=1 addr=0000100a raw=aa000000 shaped=ffffbeef
[L2 ARB] resp master=1 data=aa000000
[L2 ARB] grant M1 addr=0000100a write=0 wdata=00000000
[L2 CACHE] accept addr=0000100a write=0 uncached=0 state=0
[L2 CACHE] lookup addr=0000100a hit=1 hit_way=1 valid=0011 tag=000000/000002/000000/000000
[L2 ARB] resp master=1 data=aa0000aa
[LSU RESP] drain=0 addr=0000100a raw=aa0000aa shaped=ffffbeef
[L2 ARB] grant M0 addr=00000140
[L2 CACHE] accept addr=00000140 write=0 uncached=0 state=0
[L2 CACHE] lookup addr=00000140 hit=0 hit_way=0 valid=0000 tag=000000/000000/000000/000000
[L2 CACHE] miss addr=00000140 victim=0 dirty=0
[L2 CACHE] refill cnt=0 ram_addr=00000140 ram_rdata=a0038393 victim=0
[L2 CACHE] refill cnt=1 ram_addr=00000144 ram_rdata=3a771e63 victim=0
[L2 CACHE] refill cnt=2 ram_addr=00000148 ram_rdata=00800193 victim=0
[L2 CACHE] refill cnt=3 ram_addr=0000014c ram_rdata=00001117 victim=0
[L2 CACHE] refill cnt=4 ram_addr=00000150 ram_rdata=ec210113 victim=0
[L2 CACHE] refill cnt=5 ram_addr=00000154 ram_rdata=000010b7 victim=0
[L2 CACHE] refill cnt=6 ram_addr=00000158 ram_rdata=aa008093 victim=0
[L2 CACHE] refill cnt=7 ram_addr=0000015c ram_rdata=00000797 victim=0
[L2 CACHE] lookup addr=00000140 hit=1 hit_way=0 valid=0001 tag=000000/000000/000000/000000
[L2 ARB] resp master=0 data=a0038393
[L2 ARB] grant M0 addr=00000160
[L2 CACHE] accept addr=00000160 write=0 uncached=0 state=0
[L2 CACHE] lookup addr=00000160 hit=0 hit_way=0 valid=0000 tag=000000/000000/000000/000000
[L2 CACHE] miss addr=00000160 victim=0 dirty=0
[L2 CACHE] refill cnt=0 ram_addr=00000160 ram_rdata=01478793 victim=0
[L2 CACHE] refill cnt=1 ram_addr=00000164 ram_rdata=fe111f23 victim=0
[L2 CACHE] refill cnt=2 ram_addr=00000168 ram_rdata=ffe11703 victim=0
[L2 CACHE] refill cnt=3 ram_addr=0000016c ram_rdata=0080006f victim=0
[L2 CACHE] refill cnt=4 ram_addr=00000170 ram_rdata=00008713 victim=0
[L2 CACHE] refill cnt=5 ram_addr=00000174 ram_rdata=000013b7 victim=0
[L2 CACHE] refill cnt=6 ram_addr=00000178 ram_rdata=aa038393 victim=0
[L2 CACHE] refill cnt=7 ram_addr=0000017c ram_rdata=38771263 victim=0
[L2 CACHE] lookup addr=00000160 hit=1 hit_way=0 valid=0001 tag=000000/000000/000000/000000
[L2 ARB] resp master=0 data=01478793
[L2 ARB] grant M1 addr=0000100c write=1 wdata=00000aa0
[L2 CACHE] accept addr=0000100c write=1 uncached=0 state=0
[L2 CACHE] lookup addr=0000100c hit=1 hit_way=1 valid=0011 tag=000000/000002/000000/000000
[LSU RESP] drain=1 addr=0000100c raw=00000aa0 shaped=000000aa
[L2 ARB] resp master=1 data=00000aa0
[L2 ARB] grant M0 addr=00000160
[L2 CACHE] accept addr=00000160 write=0 uncached=0 state=0
[L2 CACHE] lookup addr=00000160 hit=1 hit_way=0 valid=0001 tag=000000/000000/000000/000000
[L2 ARB] resp master=0 data=01478793
[L2 ARB] grant M1 addr=0000100c write=0 wdata=00000000
[L2 CACHE] accept addr=0000100c write=0 uncached=0 state=0
[L2 CACHE] lookup addr=0000100c hit=1 hit_way=1 valid=0011 tag=000000/000002/000000/000000
[LSU RESP] drain=0 addr=0000100c raw=beef0aa0 shaped=000000aa
[L2 ARB] resp master=1 data=beef0aa0
[L2 ARB] grant M0 addr=00000180
[L2 CACHE] accept addr=00000180 write=0 uncached=0 state=0
[L2 CACHE] lookup addr=00000180 hit=0 hit_way=0 valid=0000 tag=000000/000000/000000/000000
[L2 CACHE] miss addr=00000180 victim=0 dirty=0
[L2 CACHE] refill cnt=0 ram_addr=00000180 ram_rdata=00900193 victim=0
[L2 CACHE] refill cnt=1 ram_addr=00000184 ram_rdata=00001117 victim=0
[L2 CACHE] refill cnt=2 ram_addr=00000188 ram_rdata=e8a10113 victim=0
[L2 CACHE] refill cnt=3 ram_addr=0000018c ram_rdata=ffffa0b7 victim=0
[L2 CACHE] refill cnt=4 ram_addr=00000190 ram_rdata=00a08093 victim=0
[L2 CACHE] refill cnt=5 ram_addr=00000194 ram_rdata=00000797 victim=0
[L2 CACHE] refill cnt=6 ram_addr=00000198 ram_rdata=01478793 victim=0
[L2 CACHE] refill cnt=7 ram_addr=0000019c ram_rdata=00111023 victim=0
[L2 CACHE] lookup addr=00000180 hit=1 hit_way=0 valid=0001 tag=000000/000000/000000/000000
[L2 ARB] resp master=0 data=00900193
[L2 ARB] grant M0 addr=000001a0
[L2 CACHE] accept addr=000001a0 write=0 uncached=0 state=0
[L2 CACHE] lookup addr=000001a0 hit=0 hit_way=0 valid=0000 tag=000000/000000/000000/000000
[L2 CACHE] miss addr=000001a0 victim=0 dirty=0
[L2 CACHE] refill cnt=0 ram_addr=000001a0 ram_rdata=00011703 victim=0
[L2 CACHE] refill cnt=1 ram_addr=000001a4 ram_rdata=0080006f victim=0
[L2 CACHE] refill cnt=2 ram_addr=000001a8 ram_rdata=00008713 victim=0
[L2 CACHE] refill cnt=3 ram_addr=000001ac ram_rdata=ffffa3b7 victim=0
[L2 CACHE] refill cnt=4 ram_addr=000001b0 ram_rdata=00a38393 victim=0
[L2 CACHE] refill cnt=5 ram_addr=000001b4 ram_rdata=34771663 victim=0
[L2 CACHE] refill cnt=6 ram_addr=000001b8 ram_rdata=00a00193 victim=0
[L2 CACHE] refill cnt=7 ram_addr=000001bc ram_rdata=00001097 victim=0
[L2 CACHE] lookup addr=000001a0 hit=1 hit_way=0 valid=0001 tag=000000/000000/000000/000000
[L2 ARB] resp master=0 data=00011703
[L2 ARB] grant M1 addr=0000100e write=1 wdata=a00a0000
[L2 CACHE] accept addr=0000100e write=1 uncached=0 state=0
[L2 CACHE] lookup addr=0000100e hit=1 hit_way=1 valid=0011 tag=000000/000002/000000/000000
[LSU RESP] drain=1 addr=0000100e raw=a00a0000 shaped=ffffbeef
[L2 ARB] resp master=1 data=a00a0000
[L2 ARB] grant M0 addr=000001a0
[L2 CACHE] accept addr=000001a0 write=0 uncached=0 state=0
[L2 CACHE] lookup addr=000001a0 hit=1 hit_way=0 valid=0001 tag=000000/000000/000000/000000
[L2 ARB] resp master=0 data=00011703
[L2 ARB] grant M1 addr=0000100e write=0 wdata=00000000
[L2 CACHE] accept addr=0000100e write=0 uncached=0 state=0
[L2 CACHE] lookup addr=0000100e hit=1 hit_way=1 valid=0011 tag=000000/000002/000000/000000
[LSU RESP] drain=0 addr=0000100e raw=a00a0aa0 shaped=ffffbeef
[L2 ARB] resp master=1 data=a00a0aa0
[L2 ARB] grant M0 addr=000001c0
[L2 CACHE] accept addr=000001c0 write=0 uncached=0 state=0
[L2 CACHE] lookup addr=000001c0 hit=0 hit_way=0 valid=0000 tag=000000/000000/000000/000000
[L2 CACHE] miss addr=000001c0 victim=0 dirty=0
[L2 CACHE] refill cnt=0 ram_addr=000001c0 ram_rdata=e5408093 victim=0
[L2 CACHE] refill cnt=1 ram_addr=000001c4 ram_rdata=12345137 victim=0
[L2 CACHE] refill cnt=2 ram_addr=000001c8 ram_rdata=67810113 victim=0
[L2 CACHE] refill cnt=3 ram_addr=000001cc ram_rdata=fe008213 victim=0
[L2 CACHE] refill cnt=4 ram_addr=000001d0 ram_rdata=02221023 victim=0
[L2 CACHE] refill cnt=5 ram_addr=000001d4 ram_rdata=00009283 victim=0
[L2 CACHE] refill cnt=6 ram_addr=000001d8 ram_rdata=000053b7 victim=0
[L2 CACHE] refill cnt=7 ram_addr=000001dc ram_rdata=67838393 victim=0
[L2 CACHE] lookup addr=000001c0 hit=1 hit_way=0 valid=0001 tag=000000/000000/000000/000000
[L2 ARB] resp master=0 data=e5408093
[L2 ARB] grant M1 addr=00001010 write=1 wdata=00005678
[L2 CACHE] accept addr=00001010 write=1 uncached=0 state=0
[L2 CACHE] lookup addr=00001010 hit=1 hit_way=1 valid=0011 tag=000000/000002/000000/000000
[L2 ARB] resp master=1 data=00005678
[LSU RESP] drain=1 addr=00001010 raw=00005678 shaped=00000aa0
[L2 ARB] grant M0 addr=000001e0
[L2 CACHE] accept addr=000001e0 write=0 uncached=0 state=0
[L2 CACHE] lookup addr=000001e0 hit=0 hit_way=0 valid=0000 tag=000000/000000/000000/000000
[L2 CACHE] miss addr=000001e0 victim=0 dirty=0
[L2 CACHE] refill cnt=0 ram_addr=000001e0 ram_rdata=32729063 victim=0
[L2 CACHE] refill cnt=1 ram_addr=000001e4 ram_rdata=00b00193 victim=0
[L2 CACHE] refill cnt=2 ram_addr=000001e8 ram_rdata=00001097 victim=0
[L2 CACHE] refill cnt=3 ram_addr=000001ec ram_rdata=e2808093 victim=0
[L2 CACHE] refill cnt=4 ram_addr=000001f0 ram_rdata=00003137 victim=0
[L2 CACHE] refill cnt=5 ram_addr=000001f4 ram_rdata=09810113 victim=0
[L2 CACHE] refill cnt=6 ram_addr=000001f8 ram_rdata=ffb08093 victim=0
[L2 CACHE] refill cnt=7 ram_addr=000001fc ram_rdata=002093a3 victim=0
[L2 CACHE] lookup addr=000001e0 hit=1 hit_way=0 valid=0001 tag=000000/000000/000000/000000
[L2 ARB] resp master=0 data=32729063
[L2 ARB] grant M1 addr=00001010 write=0 wdata=00000000
[L2 CACHE] accept addr=00001010 write=0 uncached=0 state=0
[L2 CACHE] lookup addr=00001010 hit=1 hit_way=1 valid=0011 tag=000000/000002/000000/000000
[L2 ARB] resp master=1 data=beef5678
[LSU RESP] drain=0 addr=00001010 raw=beef5678 shaped=00000aa0
[L2 ARB] grant M0 addr=00000200
[L2 CACHE] accept addr=00000200 write=0 uncached=0 state=0
[L2 CACHE] lookup addr=00000200 hit=0 hit_way=0 valid=0000 tag=000000/000000/000000/000000
[L2 CACHE] miss addr=00000200 victim=0 dirty=0
[L2 CACHE] refill cnt=0 ram_addr=00000200 ram_rdata=00001217 victim=0
[L2 CACHE] refill cnt=1 ram_addr=00000204 ram_rdata=e1220213 victim=0
[L2 CACHE] refill cnt=2 ram_addr=00000208 ram_rdata=00021283 victim=0
[L2 CACHE] refill cnt=3 ram_addr=0000020c ram_rdata=000033b7 victim=0
[L2 CACHE] refill cnt=4 ram_addr=00000210 ram_rdata=09838393 victim=0
[L2 CACHE] refill cnt=5 ram_addr=00000214 ram_rdata=2e729663 victim=0
[L2 CACHE] refill cnt=6 ram_addr=00000218 ram_rdata=00c00193 victim=0
[L2 CACHE] refill cnt=7 ram_addr=0000021c ram_rdata=00000213 victim=0
[L2 CACHE] lookup addr=00000200 hit=1 hit_way=0 valid=0001 tag=000000/000000/000000/000000
[L2 ARB] resp master=0 data=00001217
[L2 ARB] grant M1 addr=00001012 write=1 wdata=30980000
[L2 CACHE] accept addr=00001012 write=1 uncached=0 state=0
[L2 CACHE] lookup addr=00001012 hit=1 hit_way=1 valid=0011 tag=000000/000002/000000/000000
[LSU RESP] drain=1 addr=00001012 raw=30980000 shaped=ffffbeef
[L2 ARB] resp master=1 data=30980000
[L2 ARB] grant M1 addr=00001012 write=0 wdata=00000000
[L2 CACHE] accept addr=00001012 write=0 uncached=0 state=0
[L2 CACHE] lookup addr=00001012 hit=1 hit_way=1 valid=0011 tag=000000/000002/000000/000000
