comp_test/sim_output_test15.txt
VCD info: dumpfile tb.vcd opened for output.
                   0<<Starting simulation>>
          0: 000010b7
          1: 50008093
          2: 0000a023
          3: 0000a223
          4: 0000a423
          5: 0000a623
          6: 0000a823
          7: 0000aa23
          8: 0000ac23
          9: 0000ae23
         10: 11111137
         11: 11110113
         12: 0020a023
         13: 22222137
         14: 22210113
         15: 0020a223
         16: 33333137
         17: 33310113
         18: 0020a423
         19: 44444137
         20: 44410113
         21: 0020a623
         22: 55555137
         23: 55510113
         24: 0020a823
         25: 66666137
         26: 66610113
         27: 0020aa23
         28: 77777137
         29: 77710113
         30: 0020ac23
         31: 88889137
         32: 88810113
         33: 0020ae23
         34: 0000a183
         35: 11111237
         36: 11120213
         37: 12419a63
         38: 0040a183
         39: 22222237
         40: 22220213
         41: 12419263
         42: 0080a183
         43: 33333237
         44: 33320213
         45: 10419a63
         46: 00c0a183
         47: 44444237
         48: 44420213
         49: 10419263
[MEM_SUBSYS_INIT] ram[24]=0020a823 ram[25]=66666137 ram[26]=66610113 ram[27]=0020aa23 ram[28]=77777137 ram[29]=77710113
[DATA_OVERLAY] ram[1024]=00000000 ram[1025]=00000000 ram[1026]=00000000 ram[1027]=00000000
[HEARTBEAT] Cycle=0 PC=0x00000000 if_valid=0 if_inst=0x00000000 dec0_valid=0 fb_pop0_valid=0 rst=1 @100
[L2 ARB] grant M0 addr=00000000
[DU DISP0] tag=1 fu=1 rd=x1 rs1=x0 rs2=x0 src1=0 src2=0 pc=00000000 @350
[FL T0 ALLOC0] prd=32 head=0 tail=16 cnt=16 @350
[DISP0] tag=1 rd=x1 prd=32 prd_old=1 pc=0x00000000 C=3
[L2 CACHE] accept addr=00000000 write=0 uncached=0 state=0
[DU ISS0]  tag=1 fu=1 rd=x1 pc=00000000 @400
[L2 CACHE] lookup addr=00000000 hit=0 hit_way=0 valid=0000 tag=000000/000000/000000/000000
[L2 CACHE] miss addr=00000000 victim=0 dirty=0
EXEC0: PC=00000000, in_br=0, br_mark=0
[DISP0] tag=2 rd=x1 prd=33 prd_old=32 pc=0x00000004 C=6
[FL T0 ALLOC0] prd=33 head=1 tail=16 cnt=15 @500
[DU DISP0] tag=2 fu=2 rd=x1 rs1=x1 rs2=x0 src1=0 src2=0 pc=00000004 @500
[L2 CACHE] refill cnt=0 ram_addr=00000000 ram_rdata=000010b7 victim=0
[DU ISS0]  tag=2 fu=2 rd=x1 pc=00000004 @550
[FL T0 FREE0] prd=1 head=2 tail=16 cnt=14 @550
[COMMIT0 FREE] prd_old=1 tag=1 rd=x1 C=7
EXEC0: PC=00000004, in_br=0, br_mark=0
WRITE T0 x1 = 00001000 (port0)
WRITE T0 x1 = 00001000 (port0)
[L2 CACHE] refill cnt=1 ram_addr=00000004 ram_rdata=50008093 victim=0
[L2 CACHE] refill cnt=2 ram_addr=00000008 ram_rdata=0000a023 victim=0
[DU DISP0] tag=1 fu=7 rd=x0 rs1=x1 rs2=x0 src1=0 src2=0 pc=00000008 @650
[L2 CACHE] refill cnt=3 ram_addr=0000000c ram_rdata=0000a223 victim=0
[COMMIT0 FREE] prd_old=32 tag=2 rd=x1 C=10
[FL T0 FREE0] prd=32 head=2 tail=17 cnt=15 @700
[DU ISS1]  tag=1 fu=7 rd=x0 winner=10 pc=00000008 @700
[L2 CACHE] refill cnt=4 ram_addr=00000010 ram_rdata=0000a423 victim=0
WRITE T0 x1 = 00001500 (port0)
WRITE T0 x1 = 00001500 (port0)
[LSU ACCEPT] kind=STORE tid=0 order=2 tag=1 func3=2 addr=00001500 wdata=00000000 rd=0
[SB ENQ] tid=0 order=2 addr=00001500 data=00000000 func3=2
[L2 CACHE] refill cnt=5 ram_addr=00000014 ram_rdata=0000a623 victim=0
[DU DISP0] tag=2 fu=7 rd=x4 rs1=x1 rs2=x0 src1=0 src2=0 pc=0000000c @800
[L2 CACHE] refill cnt=6 ram_addr=00000018 ram_rdata=0000a823 victim=0
[L2 CACHE] refill cnt=7 ram_addr=0000001c ram_rdata=0000aa23 victim=0
[DU ISS1]  tag=2 fu=7 rd=x4 winner=10 pc=0000000c @900
[L2 CACHE] lookup addr=00000000 hit=1 hit_way=0 valid=0001 tag=000000/000000/000000/000000
[DU DISP0] tag=3 fu=7 rd=x8 rs1=x1 rs2=x0 src1=0 src2=0 pc=00000010 @950
[LSU ACCEPT] kind=STORE tid=0 order=3 tag=2 func3=2 addr=00001504 wdata=00000000 rd=4
[SB ENQ] tid=0 order=3 addr=00001504 data=00000000 func3=2
[SB COMMIT] tid=0 order=2 idx=0 addr=00001500
[L2 ARB] resp master=0 data=000010b7
[SB DRAIN] tid=0 order=2 addr=00001500 data=00000000 wen=1111
[DU DISP0] tag=1 fu=7 rd=x12 rs1=x1 rs2=x0 src1=0 src2=0 pc=00000014 @1100
[DU ISS1]  tag=3 fu=7 rd=x8 winner=10 pc=00000010 @1100
[L2 ARB] grant M1 addr=00001500 write=1 wdata=00000000
[SB COMMIT] tid=0 order=3 idx=1 addr=00001504
[L2 CACHE] accept addr=00001500 write=1 uncached=0 state=0
[L2 CACHE] lookup addr=00001500 hit=0 hit_way=0 valid=0000 tag=000000/000000/000000/000000
[L2 CACHE] miss addr=00001500 victim=0 dirty=0
[DU DISP0] tag=2 fu=7 rd=x16 rs1=x1 rs2=x0 src1=0 src2=0 pc=00000018 @1250
[L2 CACHE] refill cnt=0 ram_addr=00001500 ram_rdata=00000000 victim=0
[L2 CACHE] refill cnt=1 ram_addr=00001504 ram_rdata=00000000 victim=0
[DU DISP0] tag=4 fu=7 rd=x20 rs1=x1 rs2=x0 src1=0 src2=0 pc=0000001c @1400
[L2 CACHE] refill cnt=2 ram_addr=00001508 ram_rdata=00000000 victim=0
[L2 CACHE] refill cnt=3 ram_addr=0000150c ram_rdata=00000000 victim=0
[L2 CACHE] refill cnt=4 ram_addr=00001510 ram_rdata=00000000 victim=0
[DU DISP0] tag=5 fu=7 rd=x24 rs1=x1 rs2=x0 src1=0 src2=0 pc=00000020 @1550
[L2 CACHE] refill cnt=5 ram_addr=00001514 ram_rdata=00000000 victim=0
[L2 CACHE] refill cnt=6 ram_addr=00001518 ram_rdata=00000000 victim=0
[L2 CACHE] refill cnt=7 ram_addr=0000151c ram_rdata=00000000 victim=0
[DU DISP0] tag=6 fu=7 rd=x28 rs1=x1 rs2=x0 src1=0 src2=0 pc=00000024 @1700
[L2 CACHE] lookup addr=00001500 hit=1 hit_way=0 valid=0001 tag=000002/000000/000000/000000
[L2 ARB] resp master=1 data=00000000
[LSU RESP] drain=1 addr=00001504 raw=00000000 shaped=00000000
[DU DISP0] tag=7 fu=1 rd=x2 rs1=x2 rs2=x17 src1=0 src2=0 pc=00000028 @1850
[FL T0 ALLOC0] prd=34 head=2 tail=18 cnt=16 @1850
[DISP0] tag=7 rd=x2 prd=34 prd_old=2 pc=0x00000028 C=33
[LSU ACCEPT] kind=STORE tid=0 order=4 tag=3 func3=2 addr=00001508 wdata=00000000 rd=8
[SB ENQ] tid=0 order=4 addr=00001508 data=00000000 func3=2
[L2 ARB] grant M0 addr=00000020
[DU ISS0]  tag=7 fu=1 rd=x2 pc=00000028 @1900
[L2 CACHE] accept addr=00000020 write=0 uncached=0 state=0
EXEC0: PC=00000028, in_br=0, br_mark=0
[SB DRAIN] tid=0 order=3 addr=00001504 data=00000000 wen=1111
[L2 CACHE] lookup addr=00000020 hit=0 hit_way=0 valid=0000 tag=000000/000000/000000/000000
[L2 CACHE] miss addr=00000020 victim=0 dirty=0
[DISP0] tag=8 rd=x2 prd=35 prd_old=34 pc=0x0000002c C=36
[FL T0 ALLOC0] prd=35 head=3 tail=18 cnt=15 @2000
[DU DISP0] tag=8 fu=2 rd=x2 rs1=x2 rs2=x17 src1=0 src2=0 pc=0000002c @2000
[DU ISS1]  tag=1 fu=7 rd=x12 winner=10 pc=00000014 @2000
[DU ISS0]  tag=8 fu=2 rd=x2 pc=0000002c @2050
[SB COMMIT] tid=0 order=4 idx=2 addr=00001508
EXEC0: PC=0000002c, in_br=0, br_mark=0
[L2 CACHE] refill cnt=0 ram_addr=00000020 ram_rdata=0000ac23 victim=0
[L2 CACHE] refill cnt=1 ram_addr=00000024 ram_rdata=0000ae23 victim=0
[DU DISP0] tag=3 fu=7 rd=x0 rs1=x1 rs2=x2 src1=0 src2=0 pc=00000030 @2150
[L2 CACHE] refill cnt=2 ram_addr=00000028 ram_rdata=11111137 victim=0
[L2 CACHE] refill cnt=3 ram_addr=0000002c ram_rdata=11110113 victim=0
[L2 CACHE] refill cnt=4 ram_addr=00000030 ram_rdata=0020a023 victim=0
[DISP0] tag=9 rd=x2 prd=36 prd_old=35 pc=0x00000034 C=42
[FL T0 ALLOC0] prd=36 head=4 tail=18 cnt=14 @2300
[DU DISP0] tag=9 fu=1 rd=x2 rs1=x4 rs2=x2 src1=0 src2=0 pc=00000034 @2300
[L2 CACHE] refill cnt=5 ram_addr=00000034 ram_rdata=22222137 victim=0
[DU ISS0]  tag=9 fu=1 rd=x2 pc=00000034 @2350
EXEC0: PC=00000034, in_br=0, br_mark=0
[L2 CACHE] refill cnt=6 ram_addr=00000038 ram_rdata=22210113 victim=0
[L2 CACHE] refill cnt=7 ram_addr=0000003c ram_rdata=0020a223 victim=0
[DU DISP0] tag=10 fu=2 rd=x2 rs1=x2 rs2=x2 src1=0 src2=0 pc=00000038 @2450
[FL T0 ALLOC0] prd=37 head=5 tail=18 cnt=13 @2450
[DISP0] tag=10 rd=x2 prd=37 prd_old=36 pc=0x00000038 C=45
[L2 CACHE] lookup addr=00000020 hit=1 hit_way=0 valid=0001 tag=000000/000000/000000/000000
[DU ISS0]  tag=10 fu=2 rd=x2 pc=00000038 @2500
[L2 ARB] resp master=0 data=0000ac23
EXEC0: PC=00000038, in_br=0, br_mark=0
[L2 ARB] grant M1 addr=00001504 write=1 wdata=00000000
[DU DISP0] tag=11 fu=7 rd=x4 rs1=x1 rs2=x2 src1=0 src2=0 pc=0000003c @2600
[L2 CACHE] accept addr=00001504 write=1 uncached=0 state=0
[L2 CACHE] lookup addr=00001504 hit=1 hit_way=0 valid=0001 tag=000002/000000/000000/000000
[DU DISP0] tag=12 fu=1 rd=x2 rs1=x6 rs2=x19 src1=0 src2=0 pc=00000040 @2750
[FL T0 ALLOC0] prd=38 head=6 tail=18 cnt=12 @2750
[DISP0] tag=12 rd=x2 prd=38 prd_old=37 pc=0x00000040 C=51
[LSU RESP] drain=1 addr=00001508 raw=00000000 shaped=00000000
[L2 ARB] resp master=1 data=00000000
[DU ISS0]  tag=12 fu=1 rd=x2 pc=00000040 @2800
[L2 ARB] grant M0 addr=00000040
EXEC0: PC=00000040, in_br=0, br_mark=0
[SB ENQ] tid=0 order=5 addr=0000150c data=00000000 func3=2
[LSU ACCEPT] kind=STORE tid=0 order=5 tag=1 func3=2 addr=0000150c wdata=00000000 rd=12
[L2 CACHE] accept addr=00000040 write=0 uncached=0 state=0
[DISP0] tag=13 rd=x2 prd=39 prd_old=38 pc=0x00000044 C=54
[FL T0 ALLOC0] prd=39 head=7 tail=18 cnt=11 @2900
[DU DISP0] tag=13 fu=2 rd=x2 rs1=x2 rs2=x19 src1=0 src2=0 pc=00000044 @2900
[L2 CACHE] lookup addr=00000040 hit=0 hit_way=0 valid=0000 tag=000000/000000/000000/000000
[L2 CACHE] miss addr=00000040 victim=0 dirty=0
[SB DRAIN] tid=0 order=4 addr=00001508 data=00000000 wen=1111
[DU ISS0]  tag=13 fu=2 rd=x2 pc=00000044 @2950
[DU ISS1]  tag=2 fu=7 rd=x16 winner=10 pc=00000018 @2950
EXEC0: PC=00000044, in_br=0, br_mark=0
[L2 CACHE] refill cnt=0 ram_addr=00000040 ram_rdata=33333137 victim=0
[SB COMMIT] tid=0 order=5 idx=3 addr=0000150c
[DU DISP0] tag=1 fu=7 rd=x8 rs1=x1 rs2=x2 src1=0 src2=0 pc=00000048 @3050
[L2 CACHE] refill cnt=1 ram_addr=00000044 ram_rdata=33310113 victim=0
[L2 CACHE] refill cnt=2 ram_addr=00000048 ram_rdata=0020a423 victim=0
[L2 CACHE] refill cnt=3 ram_addr=0000004c ram_rdata=44444137 victim=0
[DISP0] tag=14 rd=x2 prd=40 prd_old=39 pc=0x0000004c C=60
[FL T0 ALLOC0] prd=40 head=8 tail=18 cnt=10 @3200
[DU DISP0] tag=14 fu=1 rd=x2 rs1=x8 rs2=x4 src1=0 src2=0 pc=0000004c @3200
[L2 CACHE] refill cnt=4 ram_addr=00000050 ram_rdata=44410113 victim=0
[DU ISS0]  tag=14 fu=1 rd=x2 pc=0000004c @3250
EXEC0: PC=0000004c, in_br=0, br_mark=0
[L2 CACHE] refill cnt=5 ram_addr=00000054 ram_rdata=0020a623 victim=0
[L2 CACHE] refill cnt=6 ram_addr=00000058 ram_rdata=55555137 victim=0
[L2 CACHE] refill cnt=7 ram_addr=0000005c ram_rdata=55510113 victim=0
[L2 CACHE] lookup addr=00000040 hit=1 hit_way=0 valid=0001 tag=000000/000000/000000/000000
[L2 ARB] resp master=0 data=33333137
[L2 ARB] grant M1 addr=00001508 write=1 wdata=00000000
[L2 CACHE] accept addr=00001508 write=1 uncached=0 state=0
[L2 CACHE] lookup addr=00001508 hit=1 hit_way=0 valid=0001 tag=000002/000000/000000/000000
[L2 ARB] resp master=1 data=00000000
[LSU RESP] drain=1 addr=0000150c raw=00000000 shaped=00000000
[LSU ACCEPT] kind=STORE tid=0 order=6 tag=2 func3=2 addr=00001510 wdata=00000000 rd=16
[SB ENQ] tid=0 order=6 addr=00001510 data=00000000 func3=2
[SB DRAIN] tid=0 order=5 addr=0000150c data=00000000 wen=1111
[DU ISS1]  tag=4 fu=7 rd=x20 winner=10 pc=0000001c @3900
[L2 ARB] grant M1 addr=0000150c write=1 wdata=00000000
[DU DISP0] tag=15 fu=2 rd=x2 rs1=x2 rs2=x4 src1=0 src2=0 pc=00000050 @3950
[FL T0 ALLOC0] prd=41 head=9 tail=18 cnt=9 @3950
[DISP0] tag=15 rd=x2 prd=41 prd_old=40 pc=0x00000050 C=75
[SB COMMIT] tid=0 order=6 idx=0 addr=00001510
[L2 CACHE] accept addr=0000150c write=1 uncached=0 state=0
[DU ISS0]  tag=15 fu=2 rd=x2 pc=00000050 @4000
[L2 CACHE] lookup addr=0000150c hit=1 hit_way=0 valid=0001 tag=000002/000000/000000/000000
EXEC0: PC=00000050, in_br=0, br_mark=0
[L2 ARB] resp master=1 data=00000000
[LSU RESP] drain=1 addr=00001510 raw=00000000 shaped=00000000
[LSU ACCEPT] kind=STORE tid=0 order=7 tag=4 func3=2 addr=00001514 wdata=00000000 rd=20
[SB ENQ] tid=0 order=7 addr=00001514 data=00000000 func3=2
[SB DRAIN] tid=0 order=6 addr=00001510 data=00000000 wen=1111
[DU ISS1]  tag=5 fu=7 rd=x24 winner=10 pc=00000020 @4300
[L2 ARB] grant M1 addr=00001510 write=1 wdata=00000000
[DU DISP0] tag=2 fu=7 rd=x12 rs1=x1 rs2=x2 src1=0 src2=0 pc=00000054 @4350
[SB COMMIT] tid=0 order=7 idx=1 addr=00001514
[L2 CACHE] accept addr=00001510 write=1 uncached=0 state=0
[L2 CACHE] lookup addr=00001510 hit=1 hit_way=0 valid=0001 tag=000002/000000/000000/000000
[L2 ARB] resp master=1 data=00000000
[LSU RESP] drain=1 addr=00001514 raw=00000000 shaped=00000000
[LSU ACCEPT] kind=STORE tid=0 order=8 tag=5 func3=2 addr=00001518 wdata=00000000 rd=24
[SB ENQ] tid=0 order=8 addr=00001518 data=00000000 func3=2
[SB DRAIN] tid=0 order=7 addr=00001514 data=00000000 wen=1111
[DU ISS1]  tag=6 fu=7 rd=x28 winner=10 pc=00000024 @4700
[L2 ARB] grant M1 addr=00001514 write=1 wdata=00000000
[DU STALL] d0_cap=0 d0_br=0 d0_tag=1 @4750
[SB COMMIT] tid=0 order=8 idx=2 addr=00001518
[L2 CACHE] accept addr=00001514 write=1 uncached=0 state=0
[DU STALL] d0_cap=0 d0_br=0 d0_tag=1 @4800
[L2 CACHE] lookup addr=00001514 hit=1 hit_way=0 valid=0001 tag=000002/000000/000000/000000
[DU STALL] d0_cap=0 d0_br=0 d0_tag=1 @4850
[DU STALL] d0_cap=0 d0_br=0 d0_tag=1 @4900
[L2 ARB] resp master=1 data=00000000
[LSU RESP] drain=1 addr=00001518 raw=00000000 shaped=00000000
[DU STALL] d0_cap=0 d0_br=0 d0_tag=1 @4950
[LSU ACCEPT] kind=STORE tid=0 order=9 tag=6 func3=2 addr=0000151c wdata=00000000 rd=28
[SB ENQ] tid=0 order=9 addr=0000151c data=00000000 func3=2
[DU STALL] d0_cap=0 d0_br=0 d0_tag=1 @5000
[DU STALL] d0_cap=0 d0_br=0 d0_tag=1 @5050
[SB DRAIN] tid=0 order=8 addr=00001518 data=00000000 wen=1111
[DU ISS1]  tag=3 fu=7 rd=x0 winner=10 pc=00000030 @5100
[DU STALL] d0_cap=0 d0_br=0 d0_tag=1 @5100
[L2 ARB] grant M1 addr=00001518 write=1 wdata=00000000
[DU STALL] d0_cap=0 d0_br=0 d0_tag=1 @5150
[SB COMMIT] tid=0 order=9 idx=3 addr=0000151c
[L2 CACHE] accept addr=00001518 write=1 uncached=0 state=0
[COMMIT0 FREE] prd_old=2 tag=7 rd=x2 C=100
[FL T0 FREE0] prd=2 head=10 tail=18 cnt=8 @5200
[DU STALL] d0_cap=0 d0_br=0 d0_tag=1 @5200
[L2 CACHE] lookup addr=00001518 hit=1 hit_way=0 valid=0001 tag=000002/000000/000000/000000
WRITE T0 x2 = 11111000 (port0)
WRITE T0 x2 = 11111000 (port0)
[DU DISP0] tag=4 fu=1 rd=x2 rs1=x10 rs2=x21 src1=0 src2=0 pc=00000058 @5250
[FL T0 ALLOC0] prd=42 head=10 tail=19 cnt=9 @5250
[FL T0 FREE0] prd=34 head=10 tail=19 cnt=9 @5250
[COMMIT0 FREE] prd_old=34 tag=8 rd=x2 C=101
[DISP0] tag=4 rd=x2 prd=42 prd_old=41 pc=0x00000058 C=101
WRITE T0 x2 = 11111111 (port0)
WRITE T0 x2 = 11111111 (port0)
[DU ISS0]  tag=4 fu=1 rd=x2 pc=00000058 @5300
[L2 ARB] resp master=1 data=00000000
EXEC0: PC=00000058, in_br=0, br_mark=0
[LSU RESP] drain=1 addr=0000151c raw=00000000 shaped=00000000
[LSU ACCEPT] kind=STORE tid=0 order=12 tag=3 func3=2 addr=00001500 wdata=11111111 rd=0
[SB ENQ] tid=0 order=12 addr=00001500 data=11111111 func3=2
[DISP0] tag=5 rd=x2 prd=43 prd_old=42 pc=0x0000005c C=104
[FL T0 ALLOC0] prd=43 head=11 tail=20 cnt=9 @5400
[DU DISP0] tag=5 fu=2 rd=x2 rs1=x2 rs2=x21 src1=0 src2=0 pc=0000005c @5400
[DU ISS0]  tag=5 fu=2 rd=x2 pc=0000005c @5450
[SB DRAIN] tid=0 order=9 addr=0000151c data=00000000 wen=1111
EXEC0: PC=0000005c, in_br=0, br_mark=0
[DU ISS1]  tag=11 fu=7 rd=x4 winner=10 pc=0000003c @5500
[L2 ARB] grant M0 addr=00000060
[DU DISP0] tag=6 fu=7 rd=x16 rs1=x1 rs2=x2 src1=0 src2=0 pc=00000060 @5550
[SB COMMIT] tid=0 order=12 idx=0 addr=00001500
[L2 CACHE] accept addr=00000060 write=0 uncached=0 state=0
[COMMIT0 FREE] prd_old=35 tag=9 rd=x2 C=108
[FL T0 FREE0] prd=35 head=12 tail=20 cnt=8 @5600
[L2 CACHE] lookup addr=00000060 hit=0 hit_way=0 valid=0000 tag=000000/000000/000000/000000
[L2 CACHE] miss addr=00000060 victim=0 dirty=0
WRITE T0 x2 = 22222000 (port0)
WRITE T0 x2 = 22222000 (port0)
[FL T0 FREE0] prd=36 head=12 tail=21 cnt=9 @5650
[COMMIT0 FREE] prd_old=36 tag=10 rd=x2 C=109
WRITE T0 x2 = 22222222 (port0)
WRITE T0 x2 = 22222222 (port0)
[DISP0] tag=3 rd=x2 prd=44 prd_old=43 pc=0x00000064 C=110
[FL T0 ALLOC0] prd=44 head=12 tail=22 cnt=10 @5700
[DU DISP0] tag=3 fu=1 rd=x2 rs1=x12 rs2=x6 src1=0 src2=0 pc=00000064 @5700
[L2 CACHE] refill cnt=0 ram_addr=00000060 ram_rdata=0020a823 victim=0
[DU ISS0]  tag=3 fu=1 rd=x2 pc=00000064 @5750
EXEC0: PC=00000064, in_br=0, br_mark=0
[L2 CACHE] refill cnt=1 ram_addr=00000064 ram_rdata=66666137 victim=0
[L2 CACHE] refill cnt=2 ram_addr=00000068 ram_rdata=66610113 victim=0
[DU DISP0] tag=7 fu=2 rd=x2 rs1=x2 rs2=x6 src1=3 src2=0 pc=00000068 @5850
[FL T0 ALLOC0] prd=45 head=13 tail=22 cnt=9 @5850
[DISP0] tag=7 rd=x2 prd=45 prd_old=44 pc=0x00000068 C=113
[L2 CACHE] refill cnt=3 ram_addr=0000006c ram_rdata=0020aa23 victim=0
[L2 CACHE] refill cnt=4 ram_addr=00000070 ram_rdata=77777137 victim=0
[L2 CACHE] refill cnt=5 ram_addr=00000074 ram_rdata=77710113 victim=0
[DU DISP0] tag=8 fu=7 rd=x20 rs1=x1 rs2=x2 src1=0 src2=7 pc=0000006c @6000
[L2 CACHE] refill cnt=6 ram_addr=00000078 ram_rdata=0020ac23 victim=0
[L2 CACHE] refill cnt=7 ram_addr=0000007c ram_rdata=88889137 victim=0
[L2 CACHE] lookup addr=00000060 hit=1 hit_way=0 valid=0001 tag=000000/000000/000000/000000
[DU STALL] d0_cap=0 d0_br=0 d0_tag=1 @6150
[L2 ARB] resp master=0 data=0020a823
[DU STALL] d0_cap=0 d0_br=0 d0_tag=1 @6200
[L2 ARB] grant M1 addr=0000151c write=1 wdata=00000000
[DU STALL] d0_cap=0 d0_br=0 d0_tag=1 @6250
[L2 CACHE] accept addr=0000151c write=1 uncached=0 state=0
[DU STALL] d0_cap=0 d0_br=0 d0_tag=1 @6300
[L2 CACHE] lookup addr=0000151c hit=1 hit_way=0 valid=0001 tag=000002/000000/000000/000000
[DU STALL] d0_cap=0 d0_br=0 d0_tag=1 @6350
[DU STALL] d0_cap=0 d0_br=0 d0_tag=1 @6400
[L2 ARB] resp master=1 data=00000000
[LSU RESP] drain=1 addr=00001500 raw=00000000 shaped=00000000
[DU STALL] d0_cap=0 d0_br=0 d0_tag=1 @6450
[LSU ACCEPT] kind=STORE tid=0 order=15 tag=11 func3=2 addr=00001504 wdata=55555555 rd=4
[SB ENQ] tid=0 order=15 addr=00001504 data=55555555 func3=2
[DU STALL] d0_cap=0 d0_br=0 d0_tag=1 @6500
[DU STALL] d0_cap=0 d0_br=0 d0_tag=1 @6550
[SB DRAIN] tid=0 order=12 addr=00001500 data=11111111 wen=1111
[DU ISS1]  tag=1 fu=7 rd=x8 winner=10 pc=00000048 @6600
[DU STALL] d0_cap=0 d0_br=0 d0_tag=1 @6600
[L2 ARB] grant M1 addr=00001500 write=1 wdata=11111111
[DU STALL] d0_cap=0 d0_br=0 d0_tag=1 @6650
[SB COMMIT] tid=0 order=15 idx=1 addr=00001504
[L2 CACHE] accept addr=00001500 write=1 uncached=0 state=0
[COMMIT0 FREE] prd_old=37 tag=12 rd=x2 C=130
[FL T0 FREE0] prd=37 head=14 tail=22 cnt=8 @6700
[DU STALL] d0_cap=0 d0_br=0 d0_tag=1 @6700
[L2 CACHE] lookup addr=00001500 hit=1 hit_way=0 valid=0001 tag=000002/000000/000000/000000
WRITE T0 x2 = 33333000 (port0)
WRITE T0 x2 = 33333000 (port0)
[DU DISP0] tag=9 fu=1 rd=x2 rs1=x14 rs2=x23 src1=0 src2=0 pc=00000070 @6750
[FL T0 ALLOC0] prd=46 head=14 tail=23 cnt=9 @6750
[FL T0 FREE0] prd=38 head=14 tail=23 cnt=9 @6750
[COMMIT0 FREE] prd_old=38 tag=13 rd=x2 C=131
[DISP0] tag=9 rd=x2 prd=46 prd_old=45 pc=0x00000070 C=131
WRITE T0 x2 = 33333333 (port0)
WRITE T0 x2 = 33333333 (port0)
[DU ISS0]  tag=9 fu=1 rd=x2 pc=00000070 @6800
[L2 ARB] resp master=1 data=11111111
EXEC0: PC=00000070, in_br=0, br_mark=0
[LSU RESP] drain=1 addr=00001504 raw=11111111 shaped=00000000
[LSU ACCEPT] kind=STORE tid=0 order=18 tag=1 func3=2 addr=00001508 wdata=33333333 rd=8
[SB ENQ] tid=0 order=18 addr=00001508 data=33333333 func3=2
[DISP0] tag=10 rd=x2 prd=47 prd_old=46 pc=0x00000074 C=134
[FL T0 ALLOC0] prd=47 head=15 tail=24 cnt=9 @6900
[DU DISP0] tag=10 fu=2 rd=x2 rs1=x2 rs2=x23 src1=0 src2=0 pc=00000074 @6900
[DU ISS0]  tag=10 fu=2 rd=x2 pc=00000074 @6950
[SB DRAIN] tid=0 order=15 addr=00001504 data=55555555 wen=1111
EXEC0: PC=00000074, in_br=0, br_mark=0
[DU ISS1]  tag=2 fu=7 rd=x12 winner=10 pc=00000054 @7000
[L2 ARB] grant M1 addr=00001504 write=1 wdata=55555555
[DU DISP0] tag=11 fu=7 rd=x24 rs1=x1 rs2=x2 src1=0 src2=10 pc=00000078 @7050
[SB COMMIT] tid=0 order=18 idx=2 addr=00001508
[L2 CACHE] accept addr=00001504 write=1 uncached=0 state=0
[COMMIT0 FREE] prd_old=39 tag=14 rd=x2 C=138
[FL T0 FREE0] prd=39 head=16 tail=24 cnt=8 @7100
[L2 CACHE] lookup addr=00001504 hit=1 hit_way=0 valid=0001 tag=000002/000000/000000/000000
WRITE T0 x2 = 44444000 (port0)
WRITE T0 x2 = 44444000 (port0)
[FL T0 FREE0] prd=40 head=16 tail=25 cnt=9 @7150
[COMMIT0 FREE] prd_old=40 tag=15 rd=x2 C=139
WRITE T0 x2 = 44444444 (port0)
WRITE T0 x2 = 44444444 (port0)
[DISP0] tag=1 rd=x2 prd=1 prd_old=47 pc=0x0000007c C=140
[FL T0 ALLOC0] prd=1 head=16 tail=26 cnt=10 @7200
[DU DISP0] tag=1 fu=1 rd=x2 rs1=x17 rs2=x8 src1=0 src2=0 pc=0000007c @7200
[L2 ARB] resp master=1 data=55555555
[LSU RESP] drain=1 addr=00001508 raw=55555555 shaped=00000000
[DU ISS0]  tag=1 fu=1 rd=x2 pc=0000007c @7250
[LSU ACCEPT] kind=STORE tid=0 order=21 tag=2 func3=2 addr=0000150c wdata=77777777 rd=12
[SB ENQ] tid=0 order=21 addr=0000150c data=77777777 func3=2
EXEC0: PC=0000007c, in_br=0, br_mark=0
[L2 ARB] grant M0 addr=00000080
[DU DISP0] tag=12 fu=2 rd=x2 rs1=x2 rs2=x8 src1=0 src2=0 pc=00000080 @7350
[FL T0 ALLOC0] prd=32 head=17 tail=26 cnt=9 @7350
[DISP0] tag=12 rd=x2 prd=32 prd_old=1 pc=0x00000080 C=143
[SB DRAIN] tid=0 order=18 addr=00001508 data=33333333 wen=1111
[L2 CACHE] accept addr=00000080 write=0 uncached=0 state=0
[DU ISS0]  tag=12 fu=2 rd=x2 pc=00000080 @7400
[DU ISS1]  tag=6 fu=7 rd=x16 winner=10 pc=00000060 @7400
[L2 CACHE] lookup addr=00000080 hit=0 hit_way=0 valid=0000 tag=000000/000000/000000/000000
[L2 CACHE] miss addr=00000080 victim=0 dirty=0
EXEC0: PC=00000080, in_br=0, br_mark=0
[SB COMMIT] tid=0 order=21 idx=3 addr=0000150c
[COMMIT0 FREE] prd_old=41 tag=4 rd=x2 C=146
[FL T0 FREE0] prd=41 head=18 tail=26 cnt=8 @7500
[DU DISP0] tag=2 fu=7 rd=x28 rs1=x1 rs2=x2 src1=0 src2=0 pc=00000084 @7500
[L2 CACHE] refill cnt=0 ram_addr=00000080 ram_rdata=88810113 victim=0
WRITE T0 x2 = 55555000 (port0)
WRITE T0 x2 = 55555000 (port0)
[FL T0 FREE0] prd=42 head=18 tail=27 cnt=9 @7550
[COMMIT0 FREE] prd_old=42 tag=5 rd=x2 C=147
WRITE T0 x2 = 55555555 (port0)
WRITE T0 x2 = 55555555 (port0)
[L2 CACHE] refill cnt=1 ram_addr=00000084 ram_rdata=0020ae23 victim=0
[L2 CACHE] refill cnt=2 ram_addr=00000088 ram_rdata=0000a183 victim=0
[DU DISP0] tag=4 fu=6 rd=x3 rs1=x1 rs2=x0 src1=0 src2=0 pc=00000088 @7650
[FL T0 ALLOC0] prd=2 head=18 tail=28 cnt=10 @7650
[DISP0] tag=4 rd=x3 prd=2 prd_old=3 pc=0x00000088 C=149
[L2 CACHE] refill cnt=3 ram_addr=0000008c ram_rdata=11111237 victim=0
[L2 CACHE] refill cnt=4 ram_addr=00000090 ram_rdata=11120213 victim=0
[L2 CACHE] refill cnt=5 ram_addr=00000094 ram_rdata=12419a63 victim=0
[DISP0] tag=5 rd=x4 prd=34 prd_old=4 pc=0x0000008c C=152
[FL T0 ALLOC0] prd=34 head=19 tail=28 cnt=9 @7800
[DU DISP0] tag=5 fu=1 rd=x4 rs1=x2 rs2=x17 src1=0 src2=0 pc=0000008c @7800
[L2 CACHE] refill cnt=6 ram_addr=00000098 ram_rdata=0040a183 victim=0
[DU ISS0]  tag=5 fu=1 rd=x4 pc=0000008c @7850
EXEC0: PC=0000008c, in_br=0, br_mark=0
[L2 CACHE] refill cnt=7 ram_addr=0000009c ram_rdata=22222237 victim=0
[L2 CACHE] lookup addr=00000080 hit=1 hit_way=0 valid=0001 tag=000000/000000/000000/000000
[DU DISP0] tag=13 fu=2 rd=x4 rs1=x4 rs2=x17 src1=0 src2=0 pc=00000090 @7950
[FL T0 ALLOC0] prd=35 head=20 tail=28 cnt=8 @7950
